Ocean,0,,51;76;178,17;2,189;0
Plains,1,,127;178;56,5;0,85;0
Desert,2,,247;233;163,24;1,189;0
Mountains,3,,112;112;112,98;0,188;0
Forest,4,,102;127;51,17;0,85;0
Taiga,5,,102;76;51,162;1,191;0
Swamp,6,,102;76;51,162;0,192;0
River,7,,51;76;178,17;2,189;0
Nether Wastes,8,,112;2;0,112;0,113;0
The End,9,,74;128;255,206;0,85;0
Frozen Ocean,10,,102;153;216,79;0,113;0
Frozen River,11,,102;153;216,79;0,113;0
Snowy Tundra,12,,255;255;255,162;1,191;0
Snowy Mountains,13,,153;153;153,162;1,191;0
Mushroom Fields,14,,242;127;165,162;0,192;0
Mushroom Field Shore,15,,127;63;178,162;0,192;0
Beach,16,,247;223;163,24;1,189;0
Desert Hills,17,,247;223;163,24;1,189;0
Wooded Hills,18,,102;127;51,17;0,85;0
Taiga Hills,19,,102;76;51,162;1,181;0
Mountain Edge,20,,112;112;112,98;0,188;0
Jungle,21,,102;127;51,17;3,190;0
Jungle Hills,22,,102;127;51,17;3,190;0
Jungle Edge,23,,102;127;51,17;3,190;0
Deep Ocean,24,,51;76;178,17;2,189;0
Stone Shore,25,,112;112;112,1;6,85;0
Snowy Beach,26,,255;255;255,17;2,113;0
Birch Forest,27,,247;233;163,17;2,189;0
Birch Forest Hills,28,,247;233;163,17;2,189;0
Dark Forest,29,,102;76;51,162;1,191;0
Snowy Taiga,30,,255;255;255,162;1,188;0
Snowy Taiga Hills,31,,255;255;255,162;1,188;0
Gian Tree Taiga,32,,102;76;51,71;3,192;0
Wooded Mountains,33,,129;86;49,17;1,188;0
Savanna,34,,216;127;51,162;0,192;0
Savanna Plateau,35,,216;127;51,162;0,192;0
